module github.com/EdisonPeterson/twittor

go 1.14

require (
	github.com/dgrijalva/jwt-go v3.2.0+incompatible
	github.com/gorilla/mux v1.7.4
	github.com/ptilotta/twittor v0.0.0-20200419231543-94a3074739ce
	github.com/rs/cors v1.7.0
	go.mongodb.org/mongo-driver v1.3.3
	golang.org/x/crypto v0.0.0-20200510223506-06a226fb4e37
)
